{
  "version": "0.3.14-fixed",
  "steps": [
    {
      "tag": "CreateEnum",
      "enum": "Day",
      "values": [
        "LUNES",
        "MARTES",
        "JUEVES",
        "VIERNES"
      ]
    },
    {
      "tag": "CreateField",
      "model": "Faculty",
      "field": "state",
      "type": "Boolean",
      "arity": "Required"
    },
    {
      "tag": "CreateDirective",
      "location": {
        "path": {
          "tag": "Field",
          "model": "Faculty",
          "field": "state"
        },
        "directive": "default"
      }
    },
    {
      "tag": "CreateArgument",
      "location": {
        "tag": "Directive",
        "path": {
          "tag": "Field",
          "model": "Faculty",
          "field": "state"
        },
        "directive": "default"
      },
      "argument": "",
      "value": "true"
    },
    {
      "tag": "CreateField",
      "model": "School",
      "field": "state",
      "type": "Boolean",
      "arity": "Required"
    },
    {
      "tag": "CreateDirective",
      "location": {
        "path": {
          "tag": "Field",
          "model": "School",
          "field": "state"
        },
        "directive": "default"
      }
    },
    {
      "tag": "CreateArgument",
      "location": {
        "tag": "Directive",
        "path": {
          "tag": "Field",
          "model": "School",
          "field": "state"
        },
        "directive": "default"
      },
      "argument": "",
      "value": "true"
    },
    {
      "tag": "CreateField",
      "model": "Semester",
      "field": "state",
      "type": "Boolean",
      "arity": "Required"
    },
    {
      "tag": "CreateDirective",
      "location": {
        "path": {
          "tag": "Field",
          "model": "Semester",
          "field": "state"
        },
        "directive": "default"
      }
    },
    {
      "tag": "CreateArgument",
      "location": {
        "tag": "Directive",
        "path": {
          "tag": "Field",
          "model": "Semester",
          "field": "state"
        },
        "directive": "default"
      },
      "argument": "",
      "value": "false"
    },
    {
      "tag": "UpdateField",
      "model": "Semester",
      "field": "startDate",
      "arity": "Optional"
    },
    {
      "tag": "UpdateField",
      "model": "Semester",
      "field": "finishDate",
      "arity": "Optional"
    },
    {
      "tag": "CreateField",
      "model": "User",
      "field": "birthDate",
      "type": "DateTime",
      "arity": "Required"
    },
    {
      "tag": "CreateField",
      "model": "User",
      "field": "state",
      "type": "Boolean",
      "arity": "Required"
    },
    {
      "tag": "CreateDirective",
      "location": {
        "path": {
          "tag": "Field",
          "model": "User",
          "field": "state"
        },
        "directive": "default"
      }
    },
    {
      "tag": "CreateArgument",
      "location": {
        "tag": "Directive",
        "path": {
          "tag": "Field",
          "model": "User",
          "field": "state"
        },
        "directive": "default"
      },
      "argument": "",
      "value": "true"
    },
    {
      "tag": "CreateField",
      "model": "User",
      "field": "coursesCreated",
      "type": "Course",
      "arity": "List"
    },
    {
      "tag": "CreateDirective",
      "location": {
        "path": {
          "tag": "Field",
          "model": "User",
          "field": "coursesCreated"
        },
        "directive": "relation"
      }
    },
    {
      "tag": "CreateArgument",
      "location": {
        "tag": "Directive",
        "path": {
          "tag": "Field",
          "model": "User",
          "field": "coursesCreated"
        },
        "directive": "relation"
      },
      "argument": "",
      "value": "\"courseCreatedByUser\""
    },
    {
      "tag": "CreateField",
      "model": "User",
      "field": "coursesUpdated",
      "type": "Course",
      "arity": "List"
    },
    {
      "tag": "CreateDirective",
      "location": {
        "path": {
          "tag": "Field",
          "model": "User",
          "field": "coursesUpdated"
        },
        "directive": "relation"
      }
    },
    {
      "tag": "CreateArgument",
      "location": {
        "tag": "Directive",
        "path": {
          "tag": "Field",
          "model": "User",
          "field": "coursesUpdated"
        },
        "directive": "relation"
      },
      "argument": "",
      "value": "\"courseUpdatedByUser\""
    },
    {
      "tag": "CreateField",
      "model": "User",
      "field": "teachersCreated",
      "type": "Teacher",
      "arity": "List"
    },
    {
      "tag": "CreateDirective",
      "location": {
        "path": {
          "tag": "Field",
          "model": "User",
          "field": "teachersCreated"
        },
        "directive": "relation"
      }
    },
    {
      "tag": "CreateArgument",
      "location": {
        "tag": "Directive",
        "path": {
          "tag": "Field",
          "model": "User",
          "field": "teachersCreated"
        },
        "directive": "relation"
      },
      "argument": "",
      "value": "\"teacherCreatedByUser\""
    },
    {
      "tag": "CreateField",
      "model": "User",
      "field": "teachersUpdated",
      "type": "Teacher",
      "arity": "List"
    },
    {
      "tag": "CreateDirective",
      "location": {
        "path": {
          "tag": "Field",
          "model": "User",
          "field": "teachersUpdated"
        },
        "directive": "relation"
      }
    },
    {
      "tag": "CreateArgument",
      "location": {
        "tag": "Directive",
        "path": {
          "tag": "Field",
          "model": "User",
          "field": "teachersUpdated"
        },
        "directive": "relation"
      },
      "argument": "",
      "value": "\"teacherUpdatedByUser\""
    },
    {
      "tag": "CreateField",
      "model": "User",
      "field": "groupsCreated",
      "type": "Group",
      "arity": "List"
    },
    {
      "tag": "CreateDirective",
      "location": {
        "path": {
          "tag": "Field",
          "model": "User",
          "field": "groupsCreated"
        },
        "directive": "relation"
      }
    },
    {
      "tag": "CreateArgument",
      "location": {
        "tag": "Directive",
        "path": {
          "tag": "Field",
          "model": "User",
          "field": "groupsCreated"
        },
        "directive": "relation"
      },
      "argument": "",
      "value": "\"groupCreatedByUser\""
    },
    {
      "tag": "CreateField",
      "model": "User",
      "field": "groupsUpdated",
      "type": "Group",
      "arity": "List"
    },
    {
      "tag": "CreateDirective",
      "location": {
        "path": {
          "tag": "Field",
          "model": "User",
          "field": "groupsUpdated"
        },
        "directive": "relation"
      }
    },
    {
      "tag": "CreateArgument",
      "location": {
        "tag": "Directive",
        "path": {
          "tag": "Field",
          "model": "User",
          "field": "groupsUpdated"
        },
        "directive": "relation"
      },
      "argument": "",
      "value": "\"groupUpdatedByUser\""
    },
    {
      "tag": "CreateField",
      "model": "User",
      "field": "activitysCreated",
      "type": "Activity",
      "arity": "List"
    },
    {
      "tag": "CreateDirective",
      "location": {
        "path": {
          "tag": "Field",
          "model": "User",
          "field": "activitysCreated"
        },
        "directive": "relation"
      }
    },
    {
      "tag": "CreateArgument",
      "location": {
        "tag": "Directive",
        "path": {
          "tag": "Field",
          "model": "User",
          "field": "activitysCreated"
        },
        "directive": "relation"
      },
      "argument": "",
      "value": "\"activityCreatedByUser\""
    },
    {
      "tag": "CreateField",
      "model": "User",
      "field": "activitysUpdated",
      "type": "Activity",
      "arity": "List"
    },
    {
      "tag": "CreateDirective",
      "location": {
        "path": {
          "tag": "Field",
          "model": "User",
          "field": "activitysUpdated"
        },
        "directive": "relation"
      }
    },
    {
      "tag": "CreateArgument",
      "location": {
        "tag": "Directive",
        "path": {
          "tag": "Field",
          "model": "User",
          "field": "activitysUpdated"
        },
        "directive": "relation"
      },
      "argument": "",
      "value": "\"activityUpdatedByUser\""
    },
    {
      "tag": "CreateField",
      "model": "User",
      "field": "schedulesCreated",
      "type": "Schedule",
      "arity": "List"
    },
    {
      "tag": "CreateDirective",
      "location": {
        "path": {
          "tag": "Field",
          "model": "User",
          "field": "schedulesCreated"
        },
        "directive": "relation"
      }
    },
    {
      "tag": "CreateArgument",
      "location": {
        "tag": "Directive",
        "path": {
          "tag": "Field",
          "model": "User",
          "field": "schedulesCreated"
        },
        "directive": "relation"
      },
      "argument": "",
      "value": "\"scheduleCreatedByUser\""
    },
    {
      "tag": "CreateField",
      "model": "User",
      "field": "schedulesUpdated",
      "type": "Schedule",
      "arity": "List"
    },
    {
      "tag": "CreateDirective",
      "location": {
        "path": {
          "tag": "Field",
          "model": "User",
          "field": "schedulesUpdated"
        },
        "directive": "relation"
      }
    },
    {
      "tag": "CreateArgument",
      "location": {
        "tag": "Directive",
        "path": {
          "tag": "Field",
          "model": "User",
          "field": "schedulesUpdated"
        },
        "directive": "relation"
      },
      "argument": "",
      "value": "\"scheduleUpdatedByUser\""
    },
    {
      "tag": "DeleteField",
      "model": "User",
      "field": "birthdate"
    },
    {
      "tag": "CreateField",
      "model": "Course",
      "field": "createdBy",
      "type": "User",
      "arity": "Required"
    },
    {
      "tag": "CreateDirective",
      "location": {
        "path": {
          "tag": "Field",
          "model": "Course",
          "field": "createdBy"
        },
        "directive": "relation"
      }
    },
    {
      "tag": "CreateArgument",
      "location": {
        "tag": "Directive",
        "path": {
          "tag": "Field",
          "model": "Course",
          "field": "createdBy"
        },
        "directive": "relation"
      },
      "argument": "",
      "value": "\"courseCreatedByUser\""
    },
    {
      "tag": "CreateField",
      "model": "Course",
      "field": "updatedBy",
      "type": "User",
      "arity": "Required"
    },
    {
      "tag": "CreateDirective",
      "location": {
        "path": {
          "tag": "Field",
          "model": "Course",
          "field": "updatedBy"
        },
        "directive": "relation"
      }
    },
    {
      "tag": "CreateArgument",
      "location": {
        "tag": "Directive",
        "path": {
          "tag": "Field",
          "model": "Course",
          "field": "updatedBy"
        },
        "directive": "relation"
      },
      "argument": "",
      "value": "\"courseUpdatedByUser\""
    },
    {
      "tag": "UpdateField",
      "model": "Course",
      "field": "prerequisiteOf",
      "arity": "List"
    },
    {
      "tag": "CreateField",
      "model": "Teacher",
      "field": "state",
      "type": "Boolean",
      "arity": "Required"
    },
    {
      "tag": "CreateDirective",
      "location": {
        "path": {
          "tag": "Field",
          "model": "Teacher",
          "field": "state"
        },
        "directive": "default"
      }
    },
    {
      "tag": "CreateArgument",
      "location": {
        "tag": "Directive",
        "path": {
          "tag": "Field",
          "model": "Teacher",
          "field": "state"
        },
        "directive": "default"
      },
      "argument": "",
      "value": "true"
    },
    {
      "tag": "CreateField",
      "model": "Teacher",
      "field": "createdAt",
      "type": "DateTime",
      "arity": "Required"
    },
    {
      "tag": "CreateDirective",
      "location": {
        "path": {
          "tag": "Field",
          "model": "Teacher",
          "field": "createdAt"
        },
        "directive": "default"
      }
    },
    {
      "tag": "CreateArgument",
      "location": {
        "tag": "Directive",
        "path": {
          "tag": "Field",
          "model": "Teacher",
          "field": "createdAt"
        },
        "directive": "default"
      },
      "argument": "",
      "value": "now()"
    },
    {
      "tag": "CreateField",
      "model": "Teacher",
      "field": "updatedAt",
      "type": "DateTime",
      "arity": "Required"
    },
    {
      "tag": "CreateDirective",
      "location": {
        "path": {
          "tag": "Field",
          "model": "Teacher",
          "field": "updatedAt"
        },
        "directive": "updatedAt"
      }
    },
    {
      "tag": "CreateField",
      "model": "Teacher",
      "field": "createdBy",
      "type": "User",
      "arity": "Required"
    },
    {
      "tag": "CreateDirective",
      "location": {
        "path": {
          "tag": "Field",
          "model": "Teacher",
          "field": "createdBy"
        },
        "directive": "relation"
      }
    },
    {
      "tag": "CreateArgument",
      "location": {
        "tag": "Directive",
        "path": {
          "tag": "Field",
          "model": "Teacher",
          "field": "createdBy"
        },
        "directive": "relation"
      },
      "argument": "",
      "value": "\"teacherCreatedByUser\""
    },
    {
      "tag": "CreateField",
      "model": "Teacher",
      "field": "updatedBy",
      "type": "User",
      "arity": "Required"
    },
    {
      "tag": "CreateDirective",
      "location": {
        "path": {
          "tag": "Field",
          "model": "Teacher",
          "field": "updatedBy"
        },
        "directive": "relation"
      }
    },
    {
      "tag": "CreateArgument",
      "location": {
        "tag": "Directive",
        "path": {
          "tag": "Field",
          "model": "Teacher",
          "field": "updatedBy"
        },
        "directive": "relation"
      },
      "argument": "",
      "value": "\"teacherUpdatedByUser\""
    },
    {
      "tag": "CreateField",
      "model": "Group",
      "field": "state",
      "type": "Boolean",
      "arity": "Required"
    },
    {
      "tag": "CreateDirective",
      "location": {
        "path": {
          "tag": "Field",
          "model": "Group",
          "field": "state"
        },
        "directive": "default"
      }
    },
    {
      "tag": "CreateArgument",
      "location": {
        "tag": "Directive",
        "path": {
          "tag": "Field",
          "model": "Group",
          "field": "state"
        },
        "directive": "default"
      },
      "argument": "",
      "value": "true"
    },
    {
      "tag": "CreateField",
      "model": "Group",
      "field": "createdAt",
      "type": "DateTime",
      "arity": "Required"
    },
    {
      "tag": "CreateDirective",
      "location": {
        "path": {
          "tag": "Field",
          "model": "Group",
          "field": "createdAt"
        },
        "directive": "default"
      }
    },
    {
      "tag": "CreateArgument",
      "location": {
        "tag": "Directive",
        "path": {
          "tag": "Field",
          "model": "Group",
          "field": "createdAt"
        },
        "directive": "default"
      },
      "argument": "",
      "value": "now()"
    },
    {
      "tag": "CreateField",
      "model": "Group",
      "field": "updatedAt",
      "type": "DateTime",
      "arity": "Required"
    },
    {
      "tag": "CreateDirective",
      "location": {
        "path": {
          "tag": "Field",
          "model": "Group",
          "field": "updatedAt"
        },
        "directive": "updatedAt"
      }
    },
    {
      "tag": "CreateField",
      "model": "Group",
      "field": "createdBy",
      "type": "User",
      "arity": "Required"
    },
    {
      "tag": "CreateDirective",
      "location": {
        "path": {
          "tag": "Field",
          "model": "Group",
          "field": "createdBy"
        },
        "directive": "relation"
      }
    },
    {
      "tag": "CreateArgument",
      "location": {
        "tag": "Directive",
        "path": {
          "tag": "Field",
          "model": "Group",
          "field": "createdBy"
        },
        "directive": "relation"
      },
      "argument": "",
      "value": "\"groupCreatedByUser\""
    },
    {
      "tag": "CreateField",
      "model": "Group",
      "field": "updatedBy",
      "type": "User",
      "arity": "Required"
    },
    {
      "tag": "CreateDirective",
      "location": {
        "path": {
          "tag": "Field",
          "model": "Group",
          "field": "updatedBy"
        },
        "directive": "relation"
      }
    },
    {
      "tag": "CreateArgument",
      "location": {
        "tag": "Directive",
        "path": {
          "tag": "Field",
          "model": "Group",
          "field": "updatedBy"
        },
        "directive": "relation"
      },
      "argument": "",
      "value": "\"groupUpdatedByUser\""
    },
    {
      "tag": "CreateDirective",
      "location": {
        "path": {
          "tag": "Model",
          "model": "Group",
          "arguments": [
            {
              "name": "",
              "value": "[semester, teacher, course, denomination]"
            }
          ]
        },
        "directive": "index"
      }
    },
    {
      "tag": "CreateField",
      "model": "Enrollment",
      "field": "state",
      "type": "Boolean",
      "arity": "Required"
    },
    {
      "tag": "CreateDirective",
      "location": {
        "path": {
          "tag": "Field",
          "model": "Enrollment",
          "field": "state"
        },
        "directive": "default"
      }
    },
    {
      "tag": "CreateArgument",
      "location": {
        "tag": "Directive",
        "path": {
          "tag": "Field",
          "model": "Enrollment",
          "field": "state"
        },
        "directive": "default"
      },
      "argument": "",
      "value": "true"
    },
    {
      "tag": "CreateField",
      "model": "Enrollment",
      "field": "createdAt",
      "type": "DateTime",
      "arity": "Required"
    },
    {
      "tag": "CreateDirective",
      "location": {
        "path": {
          "tag": "Field",
          "model": "Enrollment",
          "field": "createdAt"
        },
        "directive": "default"
      }
    },
    {
      "tag": "CreateArgument",
      "location": {
        "tag": "Directive",
        "path": {
          "tag": "Field",
          "model": "Enrollment",
          "field": "createdAt"
        },
        "directive": "default"
      },
      "argument": "",
      "value": "now()"
    },
    {
      "tag": "CreateField",
      "model": "Enrollment",
      "field": "updatedAt",
      "type": "DateTime",
      "arity": "Required"
    },
    {
      "tag": "CreateDirective",
      "location": {
        "path": {
          "tag": "Field",
          "model": "Enrollment",
          "field": "updatedAt"
        },
        "directive": "updatedAt"
      }
    },
    {
      "tag": "CreateDirective",
      "location": {
        "path": {
          "tag": "Model",
          "model": "Enrollment",
          "arguments": [
            {
              "name": "",
              "value": "[user, group]"
            }
          ]
        },
        "directive": "index"
      }
    },
    {
      "tag": "CreateField",
      "model": "Activity",
      "field": "state",
      "type": "Boolean",
      "arity": "Required"
    },
    {
      "tag": "CreateDirective",
      "location": {
        "path": {
          "tag": "Field",
          "model": "Activity",
          "field": "state"
        },
        "directive": "default"
      }
    },
    {
      "tag": "CreateArgument",
      "location": {
        "tag": "Directive",
        "path": {
          "tag": "Field",
          "model": "Activity",
          "field": "state"
        },
        "directive": "default"
      },
      "argument": "",
      "value": "true"
    },
    {
      "tag": "CreateField",
      "model": "Activity",
      "field": "createdAt",
      "type": "DateTime",
      "arity": "Required"
    },
    {
      "tag": "CreateDirective",
      "location": {
        "path": {
          "tag": "Field",
          "model": "Activity",
          "field": "createdAt"
        },
        "directive": "default"
      }
    },
    {
      "tag": "CreateArgument",
      "location": {
        "tag": "Directive",
        "path": {
          "tag": "Field",
          "model": "Activity",
          "field": "createdAt"
        },
        "directive": "default"
      },
      "argument": "",
      "value": "now()"
    },
    {
      "tag": "CreateField",
      "model": "Activity",
      "field": "updatedAt",
      "type": "DateTime",
      "arity": "Required"
    },
    {
      "tag": "CreateDirective",
      "location": {
        "path": {
          "tag": "Field",
          "model": "Activity",
          "field": "updatedAt"
        },
        "directive": "updatedAt"
      }
    },
    {
      "tag": "CreateField",
      "model": "Activity",
      "field": "createdBy",
      "type": "User",
      "arity": "Required"
    },
    {
      "tag": "CreateDirective",
      "location": {
        "path": {
          "tag": "Field",
          "model": "Activity",
          "field": "createdBy"
        },
        "directive": "relation"
      }
    },
    {
      "tag": "CreateArgument",
      "location": {
        "tag": "Directive",
        "path": {
          "tag": "Field",
          "model": "Activity",
          "field": "createdBy"
        },
        "directive": "relation"
      },
      "argument": "",
      "value": "\"activityCreatedByUser\""
    },
    {
      "tag": "CreateField",
      "model": "Activity",
      "field": "updatedBy",
      "type": "User",
      "arity": "Required"
    },
    {
      "tag": "CreateDirective",
      "location": {
        "path": {
          "tag": "Field",
          "model": "Activity",
          "field": "updatedBy"
        },
        "directive": "relation"
      }
    },
    {
      "tag": "CreateArgument",
      "location": {
        "tag": "Directive",
        "path": {
          "tag": "Field",
          "model": "Activity",
          "field": "updatedBy"
        },
        "directive": "relation"
      },
      "argument": "",
      "value": "\"activityUpdatedByUser\""
    },
    {
      "tag": "CreateDirective",
      "location": {
        "path": {
          "tag": "Field",
          "model": "Activity",
          "field": "obligatory"
        },
        "directive": "default"
      }
    },
    {
      "tag": "CreateArgument",
      "location": {
        "tag": "Directive",
        "path": {
          "tag": "Field",
          "model": "Activity",
          "field": "obligatory"
        },
        "directive": "default"
      },
      "argument": "",
      "value": "true"
    },
    {
      "tag": "UpdateField",
      "model": "Activity",
      "field": "parentActivity",
      "arity": "Optional"
    },
    {
      "tag": "CreateField",
      "model": "Grade",
      "field": "state",
      "type": "Boolean",
      "arity": "Required"
    },
    {
      "tag": "CreateDirective",
      "location": {
        "path": {
          "tag": "Field",
          "model": "Grade",
          "field": "state"
        },
        "directive": "default"
      }
    },
    {
      "tag": "CreateArgument",
      "location": {
        "tag": "Directive",
        "path": {
          "tag": "Field",
          "model": "Grade",
          "field": "state"
        },
        "directive": "default"
      },
      "argument": "",
      "value": "true"
    },
    {
      "tag": "CreateField",
      "model": "Grade",
      "field": "createdAt",
      "type": "DateTime",
      "arity": "Required"
    },
    {
      "tag": "CreateDirective",
      "location": {
        "path": {
          "tag": "Field",
          "model": "Grade",
          "field": "createdAt"
        },
        "directive": "default"
      }
    },
    {
      "tag": "CreateArgument",
      "location": {
        "tag": "Directive",
        "path": {
          "tag": "Field",
          "model": "Grade",
          "field": "createdAt"
        },
        "directive": "default"
      },
      "argument": "",
      "value": "now()"
    },
    {
      "tag": "CreateField",
      "model": "Grade",
      "field": "updatedAt",
      "type": "DateTime",
      "arity": "Required"
    },
    {
      "tag": "CreateDirective",
      "location": {
        "path": {
          "tag": "Field",
          "model": "Grade",
          "field": "updatedAt"
        },
        "directive": "updatedAt"
      }
    },
    {
      "tag": "CreateField",
      "model": "Building",
      "field": "state",
      "type": "Boolean",
      "arity": "Required"
    },
    {
      "tag": "CreateDirective",
      "location": {
        "path": {
          "tag": "Field",
          "model": "Building",
          "field": "state"
        },
        "directive": "default"
      }
    },
    {
      "tag": "CreateArgument",
      "location": {
        "tag": "Directive",
        "path": {
          "tag": "Field",
          "model": "Building",
          "field": "state"
        },
        "directive": "default"
      },
      "argument": "",
      "value": "true"
    },
    {
      "tag": "CreateDirective",
      "location": {
        "path": {
          "tag": "Field",
          "model": "Building",
          "field": "name"
        },
        "directive": "unique"
      }
    },
    {
      "tag": "CreateField",
      "model": "Classroom",
      "field": "state",
      "type": "Boolean",
      "arity": "Required"
    },
    {
      "tag": "CreateDirective",
      "location": {
        "path": {
          "tag": "Field",
          "model": "Classroom",
          "field": "state"
        },
        "directive": "default"
      }
    },
    {
      "tag": "CreateArgument",
      "location": {
        "tag": "Directive",
        "path": {
          "tag": "Field",
          "model": "Classroom",
          "field": "state"
        },
        "directive": "default"
      },
      "argument": "",
      "value": "true"
    },
    {
      "tag": "CreateField",
      "model": "Schedule",
      "field": "state",
      "type": "Boolean",
      "arity": "Required"
    },
    {
      "tag": "CreateDirective",
      "location": {
        "path": {
          "tag": "Field",
          "model": "Schedule",
          "field": "state"
        },
        "directive": "default"
      }
    },
    {
      "tag": "CreateArgument",
      "location": {
        "tag": "Directive",
        "path": {
          "tag": "Field",
          "model": "Schedule",
          "field": "state"
        },
        "directive": "default"
      },
      "argument": "",
      "value": "true"
    },
    {
      "tag": "CreateField",
      "model": "Schedule",
      "field": "createdAt",
      "type": "DateTime",
      "arity": "Required"
    },
    {
      "tag": "CreateDirective",
      "location": {
        "path": {
          "tag": "Field",
          "model": "Schedule",
          "field": "createdAt"
        },
        "directive": "default"
      }
    },
    {
      "tag": "CreateArgument",
      "location": {
        "tag": "Directive",
        "path": {
          "tag": "Field",
          "model": "Schedule",
          "field": "createdAt"
        },
        "directive": "default"
      },
      "argument": "",
      "value": "now()"
    },
    {
      "tag": "CreateField",
      "model": "Schedule",
      "field": "updatedAt",
      "type": "DateTime",
      "arity": "Required"
    },
    {
      "tag": "CreateDirective",
      "location": {
        "path": {
          "tag": "Field",
          "model": "Schedule",
          "field": "updatedAt"
        },
        "directive": "updatedAt"
      }
    },
    {
      "tag": "CreateField",
      "model": "Schedule",
      "field": "createdBy",
      "type": "User",
      "arity": "Required"
    },
    {
      "tag": "CreateDirective",
      "location": {
        "path": {
          "tag": "Field",
          "model": "Schedule",
          "field": "createdBy"
        },
        "directive": "relation"
      }
    },
    {
      "tag": "CreateArgument",
      "location": {
        "tag": "Directive",
        "path": {
          "tag": "Field",
          "model": "Schedule",
          "field": "createdBy"
        },
        "directive": "relation"
      },
      "argument": "",
      "value": "\"scheduleCreatedByUser\""
    },
    {
      "tag": "CreateField",
      "model": "Schedule",
      "field": "updatedBy",
      "type": "User",
      "arity": "Required"
    },
    {
      "tag": "CreateDirective",
      "location": {
        "path": {
          "tag": "Field",
          "model": "Schedule",
          "field": "updatedBy"
        },
        "directive": "relation"
      }
    },
    {
      "tag": "CreateArgument",
      "location": {
        "tag": "Directive",
        "path": {
          "tag": "Field",
          "model": "Schedule",
          "field": "updatedBy"
        },
        "directive": "relation"
      },
      "argument": "",
      "value": "\"scheduleUpdatedByUser\""
    },
    {
      "tag": "UpdateField",
      "model": "Schedule",
      "field": "day",
      "type": "Day"
    },
    {
      "tag": "UpdateField",
      "model": "Schedule",
      "field": "startHour",
      "type": "DateTime"
    },
    {
      "tag": "UpdateField",
      "model": "Schedule",
      "field": "finishHour",
      "type": "DateTime"
    }
  ]
}