{
  "version": "0.3.14-fixed",
  "steps": [
    {
      "tag": "CreateField",
      "model": "Activity",
      "field": "presentationDate",
      "type": "DateTime",
      "arity": "Optional"
    },
    {
      "tag": "DeleteField",
      "model": "Activity",
      "field": "startDate"
    },
    {
      "tag": "DeleteField",
      "model": "Activity",
      "field": "finishDate"
    }
  ]
}